Check Threatened Plant Species Status Against Peru's Supreme Decree 043-2006-AG • peruflorads43
…
# Check DS 043 protection status
results <- is_ds043_2006_ag(field_species, return_details = TRUE)
#> The species list (splist) should only include binomial names. The following names were submitted at the genus level: 'ROCA', 'SUELO'
#> The species list (splist) should only include binomial names. The following names were submitted at the genus level: 'ROCA', 'SUELO'

results
#> # A tibble: 26 × 14
#>    Input.Name        Consolidated.Name Consolidated.Status Consolidated.Category
#>    <chr>             <chr>             <chr>               <chr>                
#>  1 Achyrocline satu… ---               Not threatened      <NA>                 
#>  2 Bouteloua simplex ---               Not threatened      <NA>                 
#>  3 Jarava ichu       ---               Not threatened      <NA>                 
#>  4 Cenchrus clandes… ---               Not threatened      <NA>                 
#>  5 Grindelia bolivi… ---               Not threatened      <NA>                 
#>  6 Tagetes filifolia ---               Not threatened      <NA>                 
#>  7 Bidens pilosa     ---               Not threatened      <NA>                 
#>  8 Cumulopuntia bol… ---               Not threatened      <NA>                 
#>  9 Ageratina sternb… ---               Not threatened      <NA>                 
#> 10 Roca              ---               Not threatened      <NA>                 
#> # ℹ 16 more rows
#> # ℹ 10 more variables: Protected.DS043 <lgl>, Is.Synonym <lgl>,
#> #   Accepted.Name <chr>, Final.Source <chr>, Match.Scenario <chr>,
#> #   Nomenclature.Status <chr>, Original.Matched <chr>, Original.Status <chr>,
#> #   Updated.Matched <chr>, Updated.Status <chr>
…
